{"755": {"Line nr": "150",
  "Veh nr": "755",
  "Lons": [20.887228, 20.883446],
  "Lats": [52.340916, 52.342094],
  "Time": "2021-07-03 20:12:03",
  "Time_diff": 23.0,
  "distance": 0.288393446793784,
  "velocity": 45.13984384598358,
  "Lat": 52.341505,
  "Lon": 20.885337},
 "758": {"Line nr": "750",
  "Veh nr": "758",
  "Lons": [20.939058, 20.938999],
  "Lats": [52.300537, 52.300629],
  "Time": "2021-07-03 20:12:06",
  "Time_diff": 24.0,
  "distance": 0.010988477654391683,
  "velocity": 1.6482716481587525,
  "Lat": 52.300583,
  "Lon": 20.9390285},
 "753": {"Line nr": "250",
  "Veh nr": "753",
  "Lons": [20.868607, 20.868605],
  "Lats": [52.332905, 52.332897],
  "Time": "2021-07-03 20:12:05",
  "Time_diff": 21.0,
  "distance": 0.0008998798612907195,
  "velocity": 0.15426511907840906,
  "Lat": 52.332901,
  "Lon": 20.868606}}
